…
The code didn’t capture the correct year information because the
original title was Death Mask (2) (1964), which confused the code to
think that the first number after ( was the year we are looking for.

## Exercise 14

``` r
uoe_art %>% 
  count(artist) %>%
  arrange(desc(n))
```

    ## # A tibble: 1,199 × 2
    ##    artist               n
    ##    <chr>            <int>
    ##  1 Unknown            373
    ##  2 Emma Gillies       175
    ##  3 <NA>               111
    ##  4 Ann F Ward          23
    ##  5 John Bellany        22
    ##  6 Zygmunt Bukowski    21
    ##  7 Boris Bućan         17
    ##  8 Marjorie Wallace    17
    ##  9 Gordon Bryce        16
    ## 10 William Gillon      16
    ## # ℹ 1,189 more rows
…
